Programming Languages für Data Science
…
Statistics on DEPARTURE_DELAY at Christmas (2)

christmas15 %>%
  group_by(ORIGIN_AIRPORT) %>%
  filter(AIRLINE == "AA") %>%
  summarise (
    mean_departure_delay = mean(DEPARTURE_DELAY),
    median_departure_delay = median(DEPARTURE_DELAY),
    max_departure_delay = max(DEPARTURE_DELAY),
    min_departure_delay = min(DEPARTURE_DELAY)
  )

## # A tibble: 88 x 5
##    ORIGIN_AIRPORT mean_departure_… median_departur… max_departure_d…
##    <chr>                     <dbl>            <dbl>            <dbl>
##  1 ABQ                       0.267             -4                 66
##  2 ALB                      -0.7               -3                 24
##  3 ANC                      -0.75              -1.5                5
##  4 ATL                      18.3               -1                327
##  5 AUS                       5.69              -2                166
##  6 BDL                      20.4               -2                320
##  7 BNA                      15.4               -2                334
##  8 BOI                       9.25               3.5               40
##  9 BOS                       9.73              -1                293
## 10 BUF                      -0.538             -3                 22
## # … with 78 more rows, and 1 more variable: min_departure_delay <dbl>
…
Correlations

The correlation plot gives a fast overview over the features which have a high correlation between each other. In our data we can find many correlations with ARRIVAL_DELAY.

christmas15 %>%
  filter(ORIGIN_AIRPORT == "JFK")

## # A tibble: 1,045 x 34
##       X1 ORIGIN_AIRPORT AIRLINE  YEAR MONTH   DAY DAY_OF_WEEK FLIGHT_NUMBER
##    <dbl> <chr>          <chr>   <dbl> <dbl> <dbl>       <dbl>         <dbl>
##  1 25034 JFK            DL       2015    12    25           5          2808
##  2 25035 JFK            AS       2015    12    23           3             7
##  3 25036 JFK            AA       2015    12    26           6            67
##  4 25037 JFK            B6       2015    12    26           6            65
##  5 25038 JFK            AA       2015    12    25           5           938
##  6 25039 JFK            B6       2015    12    23           3           403
##  7 25040 JFK            B6       2015    12    24           4            15
##  8 25041 JFK            B6       2015    12    25           5          1418
##  9 25042 JFK            B6       2015    12    23           3           983
## 10 25043 JFK            B6       2015    12    25           5          1415
## # … with 1,035 more rows, and 26 more variables: TAIL_NUMBER <chr>,
## #   DESTINATION_AIRPORT <chr>, SCHEDULED_DEPARTURE <chr>,
## #   DEPARTURE_TIME <chr>, DEPARTURE_DELAY <dbl>, TAXI_OUT <dbl>,
## #   WHEELS_OFF <chr>, SCHEDULED_TIME <dbl>, ELAPSED_TIME <dbl>,
## #   AIR_TIME <dbl>, DISTANCE <dbl>, WHEELS_ON <chr>, TAXI_IN <dbl>,
## #   SCHEDULED_ARRIVAL <chr>, ARRIVAL_TIME <chr>, ARRIVAL_DELAY <dbl>,
## #   DIVERTED <dbl>, CANCELLED <dbl>, AIRLINE.y <chr>, AIRPORT <chr>,
## #   CITY <chr>, STATE <chr>, COUNTRY <chr>, LATITUDE <dbl>,
## #   LONGITUDE <dbl>, DEPARTURE_DATE <date>
…
DEPARTURE_DELAY per DAY AND AIRLINE

christmas15 %>% 
  group_by(DEPARTURE_DATE, AIRLINE.y) %>% 
  summarise(DEPARTURE_DELAY = mean(DEPARTURE_DELAY)) %>% 
  ungroup() %>%
  arrange(desc(DEPARTURE_DELAY))

## # A tibble: 52 x 3
##    DEPARTURE_DATE AIRLINE.y                   DEPARTURE_DELAY
##    <date>         <chr>                                 <dbl>
##  1 2015-12-24     Delta Air Lines Inc.                   76.7
##  2 2015-12-23     JetBlue Airways                        39.9
##  3 2015-12-24     Atlantic Southeast Airlines            39.9
##  4 2015-12-26     Spirit Air Lines                       32.4
##  5 2015-12-26     Frontier Airlines Inc.                 29.0
##  6 2015-12-24     Frontier Airlines Inc.                 27.4
##  7 2015-12-23     Atlantic Southeast Airlines            27.2
##  8 2015-12-23     Skywest Airlines Inc.                  25.1
##  9 2015-12-23     Southwest Airlines Co.                 25.0
## 10 2015-12-24     Spirit Air Lines                       24.8
## # … with 42 more rows
…
What airports have the highest DEPARTURE_DELAYs?

christmas15 %>% 
  group_by(ORIGIN_AIRPORT) %>% 
  summarise(meanDEPARTURE_DELAY = mean(DEPARTURE_DELAY)) %>% 
  ungroup() %>%
 arrange(desc(meanDEPARTURE_DELAY))

## # A tibble: 304 x 2
##    ORIGIN_AIRPORT meanDEPARTURE_DELAY
##    <chr>                        <dbl>
##  1 ASE                           91.5
##  2 BQK                           81.9
##  3 EGE                           79.4
##  4 MGM                           75.1
##  5 OAJ                           74.5
##  6 MQT                           68.2
##  7 AVP                           67.8
##  8 ELM                           66.1
##  9 CSG                           63  
## 10 ROA                           59.2
## # … with 294 more rows
…
Flights per airline

christmas15 %>% 
    group_by(AIRLINE, DEPARTURE_DATE) %>% 
    summarise(count = n())

## # A tibble: 52 x 3
## # Groups:   AIRLINE [13]
##    AIRLINE DEPARTURE_DATE count
##    <chr>   <date>         <int>
##  1 AA      2015-12-23      2619
##  2 AA      2015-12-24      2304
##  3 AA      2015-12-25      2295
##  4 AA      2015-12-26      2157
##  5 AS      2015-12-23       485
##  6 AS      2015-12-24       477
##  7 AS      2015-12-25       428
##  8 AS      2015-12-26       453
##  9 B6      2015-12-23       786
## 10 B6      2015-12-24       763
## # … with 42 more rows

Count of delayed flights per airline

christmas15 %>% 
    group_by(AIRLINE, DEPARTURE_DATE) %>% 
    filter(DEPARTURE_DELAY > 0) %>% 
    summarise(count = n())

## # A tibble: 52 x 3
## # Groups:   AIRLINE [13]
##    AIRLINE DEPARTURE_DATE count
##    <chr>   <date>         <int>
##  1 AA      2015-12-23      1422
##  2 AA      2015-12-24       842
##  3 AA      2015-12-25       772
##  4 AA      2015-12-26       964
##  5 AS      2015-12-23       151
##  6 AS      2015-12-24        91
##  7 AS      2015-12-25        82
##  8 AS      2015-12-26       128
##  9 B6      2015-12-23       539
## 10 B6      2015-12-24       414
## # … with 42 more rows
